<?xml version="1.0" encoding="UTF-8" standalone="no"?>
<!-- Created with Inkscape (http://www.inkscape.org/) -->

<svg
   xmlns:dc="http://purl.org/dc/elements/1.1/"
   xmlns:cc="http://creativecommons.org/ns#"
   xmlns:rdf="http://www.w3.org/1999/02/22-rdf-syntax-ns#"
   xmlns:svg="http://www.w3.org/2000/svg"
   xmlns="http://www.w3.org/2000/svg"
   xmlns:xlink="http://www.w3.org/1999/xlink"
   xmlns:sodipodi="http://sodipodi.sourceforge.net/DTD/sodipodi-0.dtd"
   xmlns:inkscape="http://www.inkscape.org/namespaces/inkscape"
   width="48"
   height="48"
   viewBox="0 0 48 48"
   id="svg2"
   version="1.1"
   inkscape:version="0.91 r13725"
   sodipodi:docname="DuctDesignerIcon_48x48.svg"
   inkscape:export-filename="/home/sizuest/Dokumente/Projekte/2011_EMod/EMod/trunk/icon/DuctDesignerIcon_48x48.png"
   inkscape:export-xdpi="90"
   inkscape:export-ydpi="90">
  <defs
     id="defs4">
    <linearGradient
       inkscape:collect="always"
       id="linearGradient8091">
      <stop
         style="stop-color:#204a87;stop-opacity:1;"
         offset="0"
         id="stop8093" />
      <stop
         style="stop-color:#3465a4;stop-opacity:1"
         offset="1"
         id="stop8095" />
    </linearGradient>
    <linearGradient
       inkscape:collect="always"
       id="linearGradient12943">
      <stop
         style="stop-color:#888a85;stop-opacity:1;"
         offset="0"
         id="stop12945" />
      <stop
         style="stop-color:#888a85;stop-opacity:0;"
         offset="1"
         id="stop12947" />
    </linearGradient>
    <radialGradient
       inkscape:collect="always"
       xlink:href="#linearGradient12943"
       id="radialGradient12949"
       cx="67.589287"
       cy="1046.1122"
       fx="67.589287"
       fy="1046.1122"
       r="56.875"
       gradientTransform="matrix(0.40439558,0,0,0.05426212,-0.90003863,991.83831)"
       gradientUnits="userSpaceOnUse" />
    <linearGradient
       inkscape:collect="always"
       xlink:href="#linearGradient8091"
       id="linearGradient8097"
       x1="23"
       y1="1013.3622"
       x2="23"
       y2="1008.3622"
       gradientUnits="userSpaceOnUse" />
    <linearGradient
       inkscape:collect="always"
       xlink:href="#linearGradient8091"
       id="linearGradient8105"
       x1="13"
       y1="1024.3622"
       x2="13"
       y2="1018.3622"
       gradientUnits="userSpaceOnUse" />
    <linearGradient
       inkscape:collect="always"
       xlink:href="#linearGradient8091"
       id="linearGradient8113"
       x1="34"
       y1="1024.3622"
       x2="34"
       y2="1018.3622"
       gradientUnits="userSpaceOnUse" />
    <linearGradient
       inkscape:collect="always"
       xlink:href="#linearGradient8091"
       id="linearGradient8121"
       x1="13"
       y1="1034.3622"
       x2="13"
       y2="1030.3622"
       gradientUnits="userSpaceOnUse" />
    <linearGradient
       inkscape:collect="always"
       xlink:href="#linearGradient8091"
       id="linearGradient8129"
       x1="23"
       y1="1045.3622"
       x2="23"
       y2="1041.3622"
       gradientUnits="userSpaceOnUse" />
  </defs>
  <sodipodi:namedview
     id="base"
     pagecolor="#ffffff"
     bordercolor="#666666"
     borderopacity="1.0"
     inkscape:pageopacity="0.0"
     inkscape:pageshadow="2"
     inkscape:zoom="10.553846"
     inkscape:cx="30.450737"
     inkscape:cy="24.958823"
     inkscape:document-units="px"
     inkscape:current-layer="layer1"
     showgrid="true"
     units="px"
     inkscape:window-width="1920"
     inkscape:window-height="1138"
     inkscape:window-x="1600"
     inkscape:window-y="33"
     inkscape:window-maximized="1"
     inkscape:snap-midpoints="true"
     inkscape:snap-smooth-nodes="true"
     inkscape:object-nodes="true"
     inkscape:snap-intersection-paths="true"
     inkscape:object-paths="true"
     showguides="false">
    <sodipodi:guide
       position="-166.07143,152.85714"
       orientation="-0.70710678,0.70710678"
       id="guide12986" />
    <inkscape:grid
       type="xygrid"
       id="grid13004" />
  </sodipodi:namedview>
  <metadata
     id="metadata7">
    <rdf:RDF>
      <cc:Work
         rdf:about="">
        <dc:format>image/svg+xml</dc:format>
        <dc:type
           rdf:resource="http://purl.org/dc/dcmitype/StillImage" />
        <dc:title></dc:title>
      </cc:Work>
    </rdf:RDF>
  </metadata>
  <g
     inkscape:label="Ebene 1"
     inkscape:groupmode="layer"
     id="layer1"
     transform="translate(0,-1004.3622)">
    <path
       sodipodi:type="inkscape:offset"
       inkscape:radius="-0.35008973"
       inkscape:original="M 23.921875 1013.6816 A 1.3460907 1.3460907 0 0 0 23.53125 1013.7598 L 12.796875 1017.6621 A 1.3460907 1.3460907 0 0 0 11.910156 1018.9277 L 11.910156 1019.4375 L 11.910156 1036.3203 A 1.3460907 1.3460907 0 0 0 12.794922 1037.5859 L 23.783203 1041.582 A 1.3460907 1.3460907 0 0 0 25.314453 1041.1328 L 35.792969 1027.4141 A 1.3460907 1.3460907 0 0 0 36.068359 1026.5977 L 36.068359 1018.9277 A 1.3460907 1.3460907 0 0 0 35.181641 1017.6621 L 24.449219 1013.7598 A 1.3460907 1.3460907 0 0 0 23.921875 1013.6816 z M 23.990234 1018.0059 L 31.921875 1020.8906 L 31.921875 1025.6504 L 23.267578 1036.9785 L 16.056641 1034.3574 L 16.056641 1020.8906 L 23.990234 1018.0059 z "
       style="color:#000000;font-style:normal;font-variant:normal;font-weight:normal;font-stretch:normal;font-size:medium;line-height:normal;font-family:sans-serif;text-indent:0;text-align:start;text-decoration:none;text-decoration-line:none;text-decoration-style:solid;text-decoration-color:#000000;letter-spacing:normal;word-spacing:normal;text-transform:none;direction:ltr;block-progression:tb;writing-mode:lr-tb;baseline-shift:baseline;text-anchor:start;white-space:normal;clip-rule:nonzero;display:inline;overflow:visible;visibility:visible;opacity:1;isolation:auto;mix-blend-mode:normal;color-interpolation:sRGB;color-interpolation-filters:linearRGB;solid-color:#000000;solid-opacity:1;fill:#2e3436;fill-opacity:1;fill-rule:evenodd;stroke:none;stroke-width:0.5;stroke-linecap:round;stroke-linejoin:round;stroke-miterlimit:4;stroke-dasharray:none;stroke-dashoffset:0;stroke-opacity:1;color-rendering:auto;image-rendering:auto;shape-rendering:auto;text-rendering:auto;enable-background:accumulate"
       id="path8089"
       d="m 23.939453,1014.0312 c -0.0985,0 -0.196292,0.025 -0.289062,0.059 l 0,-0 -10.734375,3.9023 c -0.38159,0.1386 -0.656346,0.5316 -0.65625,0.9375 l 0,0.5098 0,16.8828 c -3.1e-4,0.4056 0.273238,0.7985 0.654296,0.9375 l 10.988282,3.9961 c 0.39587,0.1441 0.877527,0 1.132812,-0.334 a 0.35012474,0.35012474 0 0 1 0.002,0 l 10.478516,-13.7187 -0.002,0 c 0.131098,-0.1721 0.205171,-0.3872 0.205078,-0.6035 l 0,-7.67 c 9.6e-5,-0.4059 -0.27466,-0.7989 -0.65625,-0.9375 l -10.732422,-3.9023 0,0 c -0.124492,-0.045 -0.258443,-0.065 -0.390625,-0.059 z m 0.0332,3.625 a 0.35012474,0.35012474 0 0 1 0.136719,0.021 l 7.931641,2.8848 a 0.35012474,0.35012474 0 0 1 0.230468,0.3281 l 0,4.7598 a 0.35012474,0.35012474 0 0 1 -0.07227,0.2129 l -8.654297,11.3281 a 0.35012474,0.35012474 0 0 1 -0.396484,0.1152 l -7.210938,-2.6211 a 0.35012474,0.35012474 0 0 1 -0.230469,-0.3281 l 0,-13.4668 a 0.35012474,0.35012474 0 0 1 0.230469,-0.3281 l 7.933594,-2.8848 a 0.35012474,0.35012474 0 0 1 0.101562,-0.021 z"
       transform="matrix(1.1469321,0,0,1.1469321,-3.5247907,-151.26159)" />
    <ellipse
       style="opacity:0.98999999;fill:url(#radialGradient12949);fill-opacity:1;stroke:none;stroke-width:1;stroke-linecap:round;stroke-linejoin:round;stroke-miterlimit:4;stroke-dasharray:none;stroke-dashoffset:0;stroke-opacity:1"
       id="path12941"
       cx="26.432774"
       cy="1048.6027"
       rx="23"
       ry="3.086158" />
    <path
       inkscape:connector-curvature="0"
       id="path13074"
       d="m 3.9999999,1039.2318 c 0,3.0434 0,6.087 0,9.1304 13.3333341,0 26.6666671,0 40.0000001,0 0,-3.3333 0,-6.6666 0,-10 -13.333333,0 -26.666666,0 -40.0000001,0 l 0,0.4349 0,0.4347 z"
       style="opacity:0.98999999;fill:#2e3436;fill-opacity:1;stroke:none;stroke-width:1;stroke-linecap:round;stroke-linejoin:miter;stroke-miterlimit:4;stroke-dasharray:none;stroke-dashoffset:0;stroke-opacity:1" />
    <path
       style="opacity:0.98999999;fill:#2e3436;fill-opacity:1;stroke:#2e3436;stroke-width:1;stroke-linecap:round;stroke-linejoin:miter;stroke-miterlimit:4;stroke-dasharray:none;stroke-dashoffset:0;stroke-opacity:1"
       d="m 4.5,1027.8622 18,0 0,9 -18,0 z"
       id="path13072"
       inkscape:connector-curvature="0" />
    <path
       inkscape:connector-curvature="0"
       id="rect12957-3"
       d="m 25.5,1016.8622 18,0 0,9 -18,0 z"
       style="opacity:0.98999999;fill:#2e3436;fill-opacity:1;stroke:#2e3436;stroke-width:1;stroke-linecap:round;stroke-linejoin:miter;stroke-miterlimit:4;stroke-dasharray:none;stroke-dashoffset:0;stroke-opacity:1" />
    <rect
       y="1028.8622"
       x="5.5"
       height="7"
       width="16"
       id="rect12996"
       style="opacity:0.98999999;fill:#204a87;fill-opacity:1;stroke:#729fcf;stroke-width:0.99999982;stroke-linecap:round;stroke-linejoin:miter;stroke-miterlimit:4;stroke-dasharray:none;stroke-dashoffset:0;stroke-opacity:1" />
    <path
       inkscape:connector-curvature="0"
       id="rect12957"
       d="m 4.4999997,1016.8622 18.0000003,0 0,9 -18.0000003,0 z"
       style="opacity:0.98999999;fill:#2e3436;fill-opacity:1;stroke:#2e3436;stroke-width:1;stroke-linecap:round;stroke-linejoin:miter;stroke-miterlimit:4;stroke-dasharray:none;stroke-dashoffset:0;stroke-opacity:1" />
    <path
       style="opacity:0.98999999;fill:#2e3436;fill-opacity:1;stroke:none;stroke-width:1;stroke-linecap:round;stroke-linejoin:miter;stroke-miterlimit:4;stroke-dasharray:none;stroke-dashoffset:0;stroke-opacity:1"
       d="m 3.9999998,1006.2318 c 0,3.0434 0,6.087 0,9.1304 13.3333342,0 26.6666672,0 40.0000002,0 0,-3.3333 0,-6.6666 0,-10 -13.333333,0 -26.666666,0 -40.0000002,0 l 0,0.4349 0,0.4347 z"
       id="rect12953"
       inkscape:connector-curvature="0" />
    <path
       style="color:#000000;font-style:normal;font-variant:normal;font-weight:normal;font-stretch:normal;font-size:medium;line-height:normal;font-family:sans-serif;text-indent:0;text-align:start;text-decoration:none;text-decoration-line:none;text-decoration-style:solid;text-decoration-color:#000000;letter-spacing:normal;word-spacing:normal;text-transform:none;direction:ltr;block-progression:tb;writing-mode:lr-tb;baseline-shift:baseline;text-anchor:start;white-space:normal;clip-rule:nonzero;display:inline;overflow:visible;visibility:visible;opacity:1;isolation:auto;mix-blend-mode:normal;color-interpolation:sRGB;color-interpolation-filters:linearRGB;solid-color:#000000;solid-opacity:1;fill:#555753;fill-opacity:1;fill-rule:evenodd;stroke:#d3d7cf;stroke-width:0.50000006;stroke-linecap:round;stroke-linejoin:round;stroke-miterlimit:4;stroke-dasharray:none;stroke-dashoffset:0;stroke-opacity:1;color-rendering:auto;image-rendering:auto;shape-rendering:auto;text-rendering:auto;enable-background:accumulate"
       d="m 23.989918,1012.9035 -12.310404,4.4763 0,0.5843 0,19.3638 12.601374,4.5821 12.019433,-15.7343 0,-8.7959 -12.310403,-4.4763 z m 0,1.7761 10.641195,3.8697 0,7.0616 -10.932166,14.3113 -10.350226,-3.764 0,-17.6089 10.641197,-3.8697 z"
       id="path12895"
       inkscape:connector-curvature="0" />
    <rect
       style="opacity:0.98999999;fill:url(#linearGradient8097);fill-opacity:1;stroke:#729fcf;stroke-width:0.99999982;stroke-linecap:round;stroke-linejoin:miter;stroke-miterlimit:4;stroke-dasharray:none;stroke-dashoffset:0;stroke-opacity:1"
       id="rect12842"
       width="37"
       height="7"
       x="5.5"
       y="1006.8622" />
    <rect
       style="opacity:0.98999999;fill:url(#linearGradient8129);fill-opacity:1.0;stroke:#729fcf;stroke-width:0.99999988;stroke-linecap:round;stroke-linejoin:miter;stroke-miterlimit:4;stroke-dasharray:none;stroke-dashoffset:0;stroke-opacity:1"
       id="rect12842-3"
       width="37"
       height="7"
       x="5.5"
       y="1039.8622" />
    <rect
       style="opacity:0.98999999;fill:url(#linearGradient8105);fill-opacity:1;stroke:#729fcf;stroke-width:0.99999982;stroke-linecap:round;stroke-linejoin:miter;stroke-miterlimit:4;stroke-dasharray:none;stroke-dashoffset:0;stroke-opacity:1"
       id="rect12842-6"
       width="16"
       height="7"
       x="5.5"
       y="1017.8622" />
    <rect
       style="opacity:0.98999999;fill:url(#linearGradient8113);fill-opacity:1;stroke:#729fcf;stroke-width:0.99999982;stroke-linecap:round;stroke-linejoin:miter;stroke-miterlimit:4;stroke-dasharray:none;stroke-dashoffset:0;stroke-opacity:1"
       id="rect12842-6-7"
       width="16"
       height="7"
       x="26.5"
       y="1017.8622" />
    <rect
       y="1028.8622"
       x="5.5"
       height="7"
       width="16"
       id="rect13070"
       style="opacity:0.98999999;fill:url(#linearGradient8121);fill-opacity:1;stroke:#729fcf;stroke-width:0.99999982;stroke-linecap:round;stroke-linejoin:miter;stroke-miterlimit:4;stroke-dasharray:none;stroke-dashoffset:0;stroke-opacity:1" />
  </g>
</svg>
