Nov 17, 2017 11:22:25 AM javax.xml.bind.ContextFinder find
FEIN: Trying to locate ch/ethz/inspire/emod/jaxb.properties
Nov 17, 2017 11:22:25 AM javax.xml.bind.ContextFinder find
FEIN:   not found
Nov 17, 2017 11:22:25 AM javax.xml.bind.ContextFinder find
FEIN: Checking system property javax.xml.bind.context.factory
Nov 17, 2017 11:22:25 AM javax.xml.bind.ContextFinder find
FEIN:   not found
Nov 17, 2017 11:22:25 AM javax.xml.bind.ContextFinder find
FEIN: Checking system property javax.xml.bind.JAXBContext
Nov 17, 2017 11:22:25 AM javax.xml.bind.ContextFinder find
FEIN:   not found
Nov 17, 2017 11:22:25 AM javax.xml.bind.ContextFinder lookupJaxbContextUsingOsgiServiceLoader
FEIN: Unable to find from OSGi: javax.xml.bind.JAXBContext
Nov 17, 2017 11:22:25 AM javax.xml.bind.ContextFinder find
FEIN: Checking META-INF/services
Nov 17, 2017 11:22:25 AM javax.xml.bind.ContextFinder find
FEIN: Unable to find: META-INF/services/javax.xml.bind.JAXBContext
Nov 17, 2017 11:22:25 AM javax.xml.bind.ContextFinder find
FEIN: Trying to create the platform default provider
Nov 17, 2017 11:22:25 AM javax.xml.bind.ContextFinder safeLoadClass
FEIN: Trying to load com.sun.xml.internal.bind.v2.ContextFactory
Nov 17, 2017 11:22:25 AM javax.xml.bind.ContextFinder newInstance
FEIN: loaded com.sun.xml.internal.bind.v2.ContextFactory from jar:file:/C:/Program%20Files/Java/jre1.8.0_121/lib/rt.jar!/com/sun/xml/internal/bind/v2/ContextFactory.class
Nov 17, 2017 11:22:25 AM com.sun.xml.internal.bind.v2.ContextFactory createContext
FEIN: Property com.sun.xml.internal.bind.XmlAccessorFactoryis not active.  Using JAXB's implementation
Nov 17, 2017 11:22:25 AM com.sun.xml.internal.bind.v2.runtime.reflect.opt.OptimizedAccessorFactory get
FEIN: Using optimized Accessor for public double ch.ethz.inspire.emod.gui.modelling.GraphElementPosition.getRotate() and public void ch.ethz.inspire.emod.gui.modelling.GraphElementPosition.setRotate(double)
Nov 17, 2017 11:22:25 AM com.sun.xml.internal.bind.v2.runtime.reflect.opt.OptimizedAccessorFactory get
FEIN: Using optimized Accessor for public ch.ethz.inspire.emod.model.APhysicalComponent ch.ethz.inspire.emod.model.MachineComponent.getComponent() and public void ch.ethz.inspire.emod.model.MachineComponent.setComponent(ch.ethz.inspire.emod.model.APhysicalComponent)
Nov 17, 2017 11:22:25 AM com.sun.xml.internal.bind.v2.runtime.reflect.opt.OptimizedAccessorFactory get
FEIN: Using optimized Accessor for public abstract java.lang.String ch.ethz.inspire.emod.model.APhysicalComponent.getType() and public abstract void ch.ethz.inspire.emod.model.APhysicalComponent.setType(java.lang.String)
Nov 17, 2017 11:22:25 AM com.sun.xml.internal.bind.v2.runtime.reflect.opt.OptimizedAccessorFactory get
FEIN: Using optimized Accessor for public abstract java.lang.String ch.ethz.inspire.emod.model.APhysicalComponent.getType() and public abstract void ch.ethz.inspire.emod.model.APhysicalComponent.setType(java.lang.String)
Nov 17, 2017 11:22:25 AM com.sun.xml.internal.bind.v2.runtime.reflect.opt.OptimizedAccessorFactory get
FEIN: Using optimized Accessor for public java.lang.String ch.ethz.inspire.emod.model.MachineComponent.getName() and public void ch.ethz.inspire.emod.model.MachineComponent.setName(java.lang.String)
Nov 17, 2017 11:22:25 AM com.sun.xml.internal.bind.v2.runtime.reflect.opt.OptimizedAccessorFactory get
FEIN: Using optimized Accessor for public java.lang.String ch.ethz.inspire.emod.model.MachineComponent.getName() and public void ch.ethz.inspire.emod.model.MachineComponent.setName(java.lang.String)
Nov 17, 2017 11:22:25 AM com.sun.xml.internal.bind.v2.runtime.reflect.opt.OptimizedAccessorFactory get
FEIN: Using optimized Accessor for protected java.lang.String ch.ethz.inspire.emod.simulation.ASimulationControl.name
Nov 17, 2017 11:22:25 AM com.sun.xml.internal.bind.v2.runtime.reflect.opt.OptimizedAccessorFactory get
FEIN: Using optimized Accessor for protected java.lang.String ch.ethz.inspire.emod.simulation.ASimulationControl.name
Nov 17, 2017 11:22:25 AM com.sun.xml.internal.bind.v2.runtime.reflect.opt.OptimizedAccessorFactory get
FEIN: Using optimized Accessor for protected ch.ethz.inspire.emod.model.units.SiUnit ch.ethz.inspire.emod.simulation.ASimulationControl.unit
Nov 17, 2017 11:22:25 AM com.sun.xml.internal.bind.v2.runtime.reflect.opt.OptimizedAccessorFactory get
FEIN: Using optimized Accessor for public int ch.ethz.inspire.emod.model.units.SiUnit.getPrefix() and public void ch.ethz.inspire.emod.model.units.SiUnit.setPrefix(int)
Nov 17, 2017 11:22:25 AM com.sun.xml.internal.bind.v2.runtime.reflect.opt.OptimizedAccessorFactory get
FEIN: Using optimized Accessor for protected ch.ethz.inspire.emod.gui.modelling.GraphElementPosition ch.ethz.inspire.emod.simulation.ASimulationControl.position
Nov 17, 2017 11:22:25 AM com.sun.xml.internal.bind.v2.runtime.reflect.opt.OptimizedAccessorFactory get
FEIN: Using optimized Accessor for protected java.lang.String ch.ethz.inspire.emod.utils.IOConnection.sourceName
Nov 17, 2017 11:22:25 AM com.sun.xml.internal.bind.v2.runtime.reflect.opt.OptimizedAccessorFactory get
FEIN: Using optimized Accessor for protected java.lang.String ch.ethz.inspire.emod.utils.IOConnection.sourceName
Nov 17, 2017 11:22:25 AM com.sun.xml.internal.bind.v2.runtime.reflect.opt.OptimizedAccessorFactory get
FEIN: Using optimized Accessor for protected java.lang.String ch.ethz.inspire.emod.utils.IOConnection.targetName
Nov 17, 2017 11:22:25 AM com.sun.xml.internal.bind.v2.runtime.reflect.opt.OptimizedAccessorFactory get
FEIN: Using optimized Accessor for protected java.lang.String ch.ethz.inspire.emod.utils.IOConnection.targetName
Nov 17, 2017 11:22:25 AM com.sun.xml.internal.bind.v2.runtime.reflect.opt.OptimizedAccessorFactory get
FEIN: Using optimized Accessor for protected java.lang.String ch.ethz.inspire.emod.model.Motor.type
Nov 17, 2017 11:22:25 AM com.sun.xml.internal.bind.v2.runtime.reflect.opt.OptimizedAccessorFactory get
FEIN: Using optimized Accessor for protected java.lang.String ch.ethz.inspire.emod.model.Motor.type
Nov 17, 2017 11:22:25 AM com.sun.xml.internal.bind.v2.runtime.reflect.opt.OptimizedAccessorFactory get
FEIN: Using optimized Accessor for protected java.lang.String ch.ethz.inspire.emod.model.MotorAC.type
Nov 17, 2017 11:22:25 AM com.sun.xml.internal.bind.v2.runtime.reflect.opt.OptimizedAccessorFactory get
FEIN: Using optimized Accessor for protected java.lang.String ch.ethz.inspire.emod.model.MotorAC.type
Nov 17, 2017 11:22:25 AM com.sun.xml.internal.bind.v2.runtime.reflect.opt.OptimizedAccessorFactory get
FEIN: Using optimized Accessor for protected java.lang.String ch.ethz.inspire.emod.model.MotorDCLinear.type
Nov 17, 2017 11:22:25 AM com.sun.xml.internal.bind.v2.runtime.reflect.opt.OptimizedAccessorFactory get
FEIN: Using optimized Accessor for protected java.lang.String ch.ethz.inspire.emod.model.MotorDCLinear.type
Nov 17, 2017 11:22:25 AM com.sun.xml.internal.bind.v2.runtime.reflect.opt.OptimizedAccessorFactory get
FEIN: Using optimized Accessor for protected java.lang.String ch.ethz.inspire.emod.model.LinAxis.type
Nov 17, 2017 11:22:25 AM com.sun.xml.internal.bind.v2.runtime.reflect.opt.OptimizedAccessorFactory get
FEIN: Using optimized Accessor for protected java.lang.String ch.ethz.inspire.emod.model.LinAxis.type
Nov 17, 2017 11:22:25 AM com.sun.xml.internal.bind.v2.runtime.reflect.opt.OptimizedAccessorFactory get
FEIN: Using optimized Accessor for protected java.lang.String ch.ethz.inspire.emod.model.RotAxis.type
Nov 17, 2017 11:22:25 AM com.sun.xml.internal.bind.v2.runtime.reflect.opt.OptimizedAccessorFactory get
FEIN: Using optimized Accessor for protected java.lang.String ch.ethz.inspire.emod.model.RotAxis.type
Nov 17, 2017 11:22:25 AM com.sun.xml.internal.bind.v2.runtime.reflect.opt.OptimizedAccessorFactory get
FEIN: Using optimized Accessor for protected java.lang.String ch.ethz.inspire.emod.model.MotorDC.type
Nov 17, 2017 11:22:25 AM com.sun.xml.internal.bind.v2.runtime.reflect.opt.OptimizedAccessorFactory get
FEIN: Using optimized Accessor for protected java.lang.String ch.ethz.inspire.emod.model.MotorDC.type
Nov 17, 2017 11:22:25 AM com.sun.xml.internal.bind.v2.runtime.reflect.opt.OptimizedAccessorFactory get
FEIN: Using optimized Accessor for protected java.lang.String ch.ethz.inspire.emod.model.Revolver.type
Nov 17, 2017 11:22:25 AM com.sun.xml.internal.bind.v2.runtime.reflect.opt.OptimizedAccessorFactory get
FEIN: Using optimized Accessor for protected java.lang.String ch.ethz.inspire.emod.model.Revolver.type
Nov 17, 2017 11:22:25 AM com.sun.xml.internal.bind.v2.runtime.reflect.opt.OptimizedAccessorFactory get
FEIN: Using optimized Accessor for protected java.lang.String ch.ethz.inspire.emod.model.Fan.type
Nov 17, 2017 11:22:25 AM com.sun.xml.internal.bind.v2.runtime.reflect.opt.OptimizedAccessorFactory get
FEIN: Using optimized Accessor for protected java.lang.String ch.ethz.inspire.emod.model.Fan.type
Nov 17, 2017 11:22:25 AM com.sun.xml.internal.bind.v2.runtime.reflect.opt.OptimizedAccessorFactory get
FEIN: Using optimized Accessor for protected java.lang.String ch.ethz.inspire.emod.model.HydraulicAccumulator.type
Nov 17, 2017 11:22:25 AM com.sun.xml.internal.bind.v2.runtime.reflect.opt.OptimizedAccessorFactory get
FEIN: Using optimized Accessor for protected java.lang.String ch.ethz.inspire.emod.model.HydraulicAccumulator.type
Nov 17, 2017 11:22:25 AM com.sun.xml.internal.bind.v2.runtime.reflect.opt.OptimizedAccessorFactory get
FEIN: Using optimized Accessor for protected java.lang.String ch.ethz.inspire.emod.model.Cooler.type
Nov 17, 2017 11:22:25 AM com.sun.xml.internal.bind.v2.runtime.reflect.opt.OptimizedAccessorFactory get
FEIN: Using optimized Accessor for protected java.lang.String ch.ethz.inspire.emod.model.Cooler.type
Nov 17, 2017 11:22:25 AM com.sun.xml.internal.bind.v2.runtime.reflect.opt.OptimizedAccessorFactory get
FEIN: Using optimized Accessor for protected java.lang.String ch.ethz.inspire.emod.model.Transmission.type
Nov 17, 2017 11:22:25 AM com.sun.xml.internal.bind.v2.runtime.reflect.opt.OptimizedAccessorFactory get
FEIN: Using optimized Accessor for protected java.lang.String ch.ethz.inspire.emod.model.Transmission.type
Nov 17, 2017 11:22:25 AM com.sun.xml.internal.bind.v2.runtime.reflect.opt.OptimizedAccessorFactory get
FEIN: Using optimized Accessor for protected java.lang.String ch.ethz.inspire.emod.model.CompressedFluid.type
Nov 17, 2017 11:22:25 AM com.sun.xml.internal.bind.v2.runtime.reflect.opt.OptimizedAccessorFactory get
FEIN: Using optimized Accessor for protected java.lang.String ch.ethz.inspire.emod.model.CompressedFluid.type
Nov 17, 2017 11:22:25 AM com.sun.xml.internal.bind.v2.runtime.reflect.opt.OptimizedAccessorFactory get
FEIN: Using optimized Accessor for protected java.lang.String ch.ethz.inspire.emod.model.Amplifier.type
Nov 17, 2017 11:22:25 AM com.sun.xml.internal.bind.v2.runtime.reflect.opt.OptimizedAccessorFactory get
FEIN: Using optimized Accessor for protected java.lang.String ch.ethz.inspire.emod.model.Amplifier.type
Nov 17, 2017 11:22:25 AM com.sun.xml.internal.bind.v2.runtime.reflect.opt.OptimizedAccessorFactory get
FEIN: Using optimized Accessor for protected java.lang.String ch.ethz.inspire.emod.model.ConstantComponent.type
Nov 17, 2017 11:22:25 AM com.sun.xml.internal.bind.v2.runtime.reflect.opt.OptimizedAccessorFactory get
FEIN: Using optimized Accessor for protected java.lang.String ch.ethz.inspire.emod.model.ConstantComponent.type
Nov 17, 2017 11:22:25 AM com.sun.xml.internal.bind.v2.runtime.reflect.opt.OptimizedAccessorFactory get
FEIN: Using optimized Accessor for protected java.lang.String ch.ethz.inspire.emod.model.Servodrive.type
Nov 17, 2017 11:22:25 AM com.sun.xml.internal.bind.v2.runtime.reflect.opt.OptimizedAccessorFactory get
FEIN: Using optimized Accessor for protected java.lang.String ch.ethz.inspire.emod.model.Servodrive.type
Nov 17, 2017 11:22:25 AM com.sun.xml.internal.bind.v2.runtime.reflect.opt.OptimizedAccessorFactory get
FEIN: Using optimized Accessor for protected java.lang.String ch.ethz.inspire.emod.model.Cylinder.type
Nov 17, 2017 11:22:25 AM com.sun.xml.internal.bind.v2.runtime.reflect.opt.OptimizedAccessorFactory get
FEIN: Using optimized Accessor for protected java.lang.String ch.ethz.inspire.emod.model.Cylinder.type
Nov 17, 2017 11:22:25 AM com.sun.xml.internal.bind.v2.runtime.reflect.opt.OptimizedAccessorFactory get
FEIN: Using optimized Accessor for protected java.lang.String ch.ethz.inspire.emod.model.Valve.type
Nov 17, 2017 11:22:25 AM com.sun.xml.internal.bind.v2.runtime.reflect.opt.OptimizedAccessorFactory get
FEIN: Using optimized Accessor for protected java.lang.String ch.ethz.inspire.emod.model.Valve.type
Nov 17, 2017 11:22:25 AM com.sun.xml.internal.bind.v2.runtime.reflect.opt.OptimizedAccessorFactory get
FEIN: Using optimized Accessor for protected java.lang.String ch.ethz.inspire.emod.model.Pipe.type
Nov 17, 2017 11:22:25 AM com.sun.xml.internal.bind.v2.runtime.reflect.opt.OptimizedAccessorFactory get
FEIN: Using optimized Accessor for protected java.lang.String ch.ethz.inspire.emod.model.Pipe.type
Nov 17, 2017 11:22:25 AM com.sun.xml.internal.bind.v2.runtime.reflect.opt.OptimizedAccessorFactory get
FEIN: Using optimized Accessor for protected java.lang.String ch.ethz.inspire.emod.model.HeatExchanger.type
Nov 17, 2017 11:22:25 AM com.sun.xml.internal.bind.v2.runtime.reflect.opt.OptimizedAccessorFactory get
FEIN: Using optimized Accessor for protected java.lang.String ch.ethz.inspire.emod.model.HeatExchanger.type
Nov 17, 2017 11:22:25 AM com.sun.xml.internal.bind.v2.runtime.reflect.opt.OptimizedAccessorFactory get
FEIN: Using optimized Accessor for protected java.lang.String ch.ethz.inspire.emod.model.Bypass.type
Nov 17, 2017 11:22:25 AM com.sun.xml.internal.bind.v2.runtime.reflect.opt.OptimizedAccessorFactory get
FEIN: Using optimized Accessor for protected java.lang.String ch.ethz.inspire.emod.model.Bypass.type
Nov 17, 2017 11:22:25 AM com.sun.xml.internal.bind.v2.runtime.reflect.opt.OptimizedAccessorFactory get
FEIN: Using optimized Accessor for protected java.lang.String ch.ethz.inspire.emod.model.HeatExchangerAir.type
Nov 17, 2017 11:22:25 AM com.sun.xml.internal.bind.v2.runtime.reflect.opt.OptimizedAccessorFactory get
FEIN: Using optimized Accessor for protected java.lang.String ch.ethz.inspire.emod.model.HeatExchangerAir.type
Nov 17, 2017 11:22:25 AM com.sun.xml.internal.bind.v2.runtime.reflect.opt.OptimizedAccessorFactory get
FEIN: Using optimized Accessor for protected double ch.ethz.inspire.emod.model.MovingMass.mass
Nov 17, 2017 11:22:25 AM com.sun.xml.internal.bind.v2.runtime.reflect.opt.OptimizedAccessorFactory get
FEIN: Using optimized Accessor for protected double ch.ethz.inspire.emod.model.MovingMass.inertia
Nov 17, 2017 11:22:25 AM com.sun.xml.internal.bind.v2.runtime.reflect.opt.OptimizedAccessorFactory get
FEIN: Using optimized Accessor for protected double ch.ethz.inspire.emod.model.MovingMass.angle
Nov 17, 2017 11:22:25 AM com.sun.xml.internal.bind.v2.runtime.reflect.opt.OptimizedAccessorFactory get
FEIN: Using optimized Accessor for protected double ch.ethz.inspire.emod.model.MovingMass.lever
Nov 17, 2017 11:22:25 AM com.sun.xml.internal.bind.v2.runtime.reflect.opt.OptimizedAccessorFactory get
FEIN: Using optimized Accessor for protected java.lang.String ch.ethz.inspire.emod.model.Bearing.type
Nov 17, 2017 11:22:25 AM com.sun.xml.internal.bind.v2.runtime.reflect.opt.OptimizedAccessorFactory get
FEIN: Using optimized Accessor for protected java.lang.String ch.ethz.inspire.emod.model.Bearing.type
Nov 17, 2017 11:22:25 AM com.sun.xml.internal.bind.v2.runtime.reflect.opt.OptimizedAccessorFactory get
FEIN: Using optimized Accessor for protected java.lang.String ch.ethz.inspire.emod.model.Spindle.type
Nov 17, 2017 11:22:25 AM com.sun.xml.internal.bind.v2.runtime.reflect.opt.OptimizedAccessorFactory get
FEIN: Using optimized Accessor for protected java.lang.String ch.ethz.inspire.emod.model.Spindle.type
Nov 17, 2017 11:22:25 AM com.sun.xml.internal.bind.v2.runtime.reflect.opt.OptimizedAccessorFactory get
FEIN: Using optimized Accessor for protected java.lang.String ch.ethz.inspire.emod.model.Tank.type
Nov 17, 2017 11:22:25 AM com.sun.xml.internal.bind.v2.runtime.reflect.opt.OptimizedAccessorFactory get
FEIN: Using optimized Accessor for protected java.lang.String ch.ethz.inspire.emod.model.Tank.type
Nov 17, 2017 11:22:25 AM com.sun.xml.internal.bind.v2.runtime.reflect.opt.OptimizedAccessorFactory get
FEIN: Using optimized Accessor for protected java.lang.String ch.ethz.inspire.emod.model.Pump.type
Nov 17, 2017 11:22:25 AM com.sun.xml.internal.bind.v2.runtime.reflect.opt.OptimizedAccessorFactory get
FEIN: Using optimized Accessor for protected java.lang.String ch.ethz.inspire.emod.model.Pump.type
Nov 17, 2017 11:22:25 AM com.sun.xml.internal.bind.v2.runtime.reflect.opt.OptimizedAccessorFactory get
FEIN: Using optimized Accessor for protected java.lang.String ch.ethz.inspire.emod.model.ForcedFluidFlow.type
Nov 17, 2017 11:22:25 AM com.sun.xml.internal.bind.v2.runtime.reflect.opt.OptimizedAccessorFactory get
FEIN: Using optimized Accessor for protected java.lang.String ch.ethz.inspire.emod.model.ForcedFluidFlow.type
Nov 17, 2017 11:22:25 AM com.sun.xml.internal.bind.v2.runtime.reflect.opt.OptimizedAccessorFactory get
FEIN: Using optimized Accessor for protected java.lang.String ch.ethz.inspire.emod.model.CooledHeatSource.type
Nov 17, 2017 11:22:25 AM com.sun.xml.internal.bind.v2.runtime.reflect.opt.OptimizedAccessorFactory get
FEIN: Using optimized Accessor for protected java.lang.String ch.ethz.inspire.emod.model.CooledHeatSource.type
Nov 17, 2017 11:22:25 AM com.sun.xml.internal.bind.v2.runtime.reflect.opt.OptimizedAccessorFactory get
FEIN: Using optimized Accessor for protected java.lang.String ch.ethz.inspire.emod.model.control.HysteresisControl.type
Nov 17, 2017 11:22:25 AM com.sun.xml.internal.bind.v2.runtime.reflect.opt.OptimizedAccessorFactory get
FEIN: Using optimized Accessor for protected java.lang.String ch.ethz.inspire.emod.model.control.HysteresisControl.type
Nov 17, 2017 11:22:25 AM com.sun.xml.internal.bind.v2.runtime.reflect.opt.OptimizedAccessorFactory get
FEIN: Using optimized Accessor for protected java.lang.String ch.ethz.inspire.emod.model.control.SwitchControl.signalUnit
Nov 17, 2017 11:22:25 AM com.sun.xml.internal.bind.v2.runtime.reflect.opt.OptimizedAccessorFactory get
FEIN: Using optimized Accessor for protected java.lang.String ch.ethz.inspire.emod.model.control.SwitchControl.signalUnit
Nov 17, 2017 11:22:25 AM com.sun.xml.internal.bind.v2.runtime.reflect.opt.OptimizedAccessorFactory get
FEIN: Using optimized Accessor for protected java.lang.String ch.ethz.inspire.emod.model.control.SwitchControl.controlUnit
Nov 17, 2017 11:22:25 AM com.sun.xml.internal.bind.v2.runtime.reflect.opt.OptimizedAccessorFactory get
FEIN: Using optimized Accessor for protected java.lang.String ch.ethz.inspire.emod.model.control.SwitchControl.controlUnit
Nov 17, 2017 11:22:25 AM com.sun.xml.internal.bind.v2.runtime.reflect.opt.OptimizedAccessorFactory get
FEIN: Using optimized Accessor for protected double ch.ethz.inspire.emod.model.control.SwitchControl.threshold
Nov 17, 2017 11:22:25 AM com.sun.xml.internal.bind.v2.runtime.reflect.opt.OptimizedAccessorFactory get
FEIN: Using optimized Accessor for protected boolean ch.ethz.inspire.emod.model.control.SwitchControl.passHigh
Nov 17, 2017 11:22:25 AM com.sun.xml.internal.bind.v2.runtime.reflect.opt.OptimizedAccessorFactory get
FEIN: Using optimized Accessor for protected java.lang.String ch.ethz.inspire.emod.model.math.Sum.unit
Nov 17, 2017 11:22:25 AM com.sun.xml.internal.bind.v2.runtime.reflect.opt.OptimizedAccessorFactory get
FEIN: Using optimized Accessor for protected java.lang.String ch.ethz.inspire.emod.model.math.Sum.unit
Nov 17, 2017 11:22:25 AM com.sun.xml.internal.bind.v2.runtime.reflect.opt.OptimizedAccessorFactory get
FEIN: Using optimized Accessor for protected java.lang.String ch.ethz.inspire.emod.model.math.Gain.unit
Nov 17, 2017 11:22:25 AM com.sun.xml.internal.bind.v2.runtime.reflect.opt.OptimizedAccessorFactory get
FEIN: Using optimized Accessor for protected java.lang.String ch.ethz.inspire.emod.model.math.Gain.unit
Nov 17, 2017 11:22:25 AM com.sun.xml.internal.bind.v2.runtime.reflect.opt.OptimizedAccessorFactory get
FEIN: Using optimized Accessor for protected double ch.ethz.inspire.emod.model.math.Gain.gain
Nov 17, 2017 11:22:25 AM com.sun.xml.internal.bind.v2.runtime.reflect.opt.OptimizedAccessorFactory get
FEIN: Using optimized Accessor for protected java.lang.String ch.ethz.inspire.emod.model.thermal.HomogStorage.name
Nov 17, 2017 11:22:25 AM com.sun.xml.internal.bind.v2.runtime.reflect.opt.OptimizedAccessorFactory get
FEIN: Using optimized Accessor for protected java.lang.String ch.ethz.inspire.emod.model.thermal.HomogStorage.name
Nov 17, 2017 11:22:25 AM com.sun.xml.internal.bind.v2.runtime.reflect.opt.OptimizedAccessorFactory get
FEIN: Using optimized Accessor for protected java.lang.String ch.ethz.inspire.emod.model.thermal.HomogStorage.type
Nov 17, 2017 11:22:25 AM com.sun.xml.internal.bind.v2.runtime.reflect.opt.OptimizedAccessorFactory get
FEIN: Using optimized Accessor for protected java.lang.String ch.ethz.inspire.emod.model.thermal.HomogStorage.type
Nov 17, 2017 11:22:25 AM com.sun.xml.internal.bind.v2.runtime.reflect.opt.OptimizedAccessorFactory get
FEIN: Using optimized Accessor for protected java.lang.String ch.ethz.inspire.emod.model.thermal.HomogStorage.parentType
Nov 17, 2017 11:22:25 AM com.sun.xml.internal.bind.v2.runtime.reflect.opt.OptimizedAccessorFactory get
FEIN: Using optimized Accessor for protected java.lang.String ch.ethz.inspire.emod.model.thermal.HomogStorage.parentType
Nov 17, 2017 11:22:25 AM com.sun.xml.internal.bind.v2.runtime.reflect.opt.OptimizedAccessorFactory get
FEIN: Using optimized Accessor for protected java.lang.String ch.ethz.inspire.emod.model.thermal.LayerStorage.type
Nov 17, 2017 11:22:25 AM com.sun.xml.internal.bind.v2.runtime.reflect.opt.OptimizedAccessorFactory get
FEIN: Using optimized Accessor for protected java.lang.String ch.ethz.inspire.emod.model.thermal.LayerStorage.type
Nov 17, 2017 11:22:25 AM com.sun.xml.internal.bind.v2.runtime.reflect.opt.OptimizedAccessorFactory get
FEIN: Using optimized Accessor for protected java.lang.String ch.ethz.inspire.emod.model.thermal.LayerStorage.parentType
Nov 17, 2017 11:22:25 AM com.sun.xml.internal.bind.v2.runtime.reflect.opt.OptimizedAccessorFactory get
FEIN: Using optimized Accessor for protected java.lang.String ch.ethz.inspire.emod.model.thermal.LayerStorage.parentType
Nov 17, 2017 11:22:25 AM com.sun.xml.internal.bind.v2.runtime.reflect.opt.OptimizedAccessorFactory get
FEIN: Using optimized Accessor for protected java.lang.String ch.ethz.inspire.emod.model.thermal.ForcedHeatTransfere.type
Nov 17, 2017 11:22:25 AM com.sun.xml.internal.bind.v2.runtime.reflect.opt.OptimizedAccessorFactory get
FEIN: Using optimized Accessor for protected java.lang.String ch.ethz.inspire.emod.model.thermal.ForcedHeatTransfere.type
Nov 17, 2017 11:22:25 AM com.sun.xml.internal.bind.v2.runtime.reflect.opt.OptimizedAccessorFactory get
FEIN: Using optimized Accessor for protected java.lang.String ch.ethz.inspire.emod.model.thermal.ForcedHeatTransfere.parentType
Nov 17, 2017 11:22:25 AM com.sun.xml.internal.bind.v2.runtime.reflect.opt.OptimizedAccessorFactory get
FEIN: Using optimized Accessor for protected java.lang.String ch.ethz.inspire.emod.model.thermal.ForcedHeatTransfere.parentType
Nov 17, 2017 11:22:25 AM com.sun.xml.internal.bind.v2.runtime.reflect.opt.OptimizedAccessorFactory get
FEIN: Using optimized Accessor for protected java.lang.String ch.ethz.inspire.emod.model.thermal.FreeHeatTransfere.type
Nov 17, 2017 11:22:25 AM com.sun.xml.internal.bind.v2.runtime.reflect.opt.OptimizedAccessorFactory get
FEIN: Using optimized Accessor for protected java.lang.String ch.ethz.inspire.emod.model.thermal.FreeHeatTransfere.type
Nov 17, 2017 11:22:25 AM com.sun.xml.internal.bind.v2.runtime.reflect.opt.OptimizedAccessorFactory get
FEIN: Using optimized Accessor for protected java.lang.String ch.ethz.inspire.emod.model.thermal.FreeHeatTransfere.parentType
Nov 17, 2017 11:22:25 AM com.sun.xml.internal.bind.v2.runtime.reflect.opt.OptimizedAccessorFactory get
FEIN: Using optimized Accessor for protected java.lang.String ch.ethz.inspire.emod.model.thermal.FreeHeatTransfere.parentType
Nov 17, 2017 11:22:25 AM  
INFORMATION: No state map existing: Creating empty state map
Nov 17, 2017 11:22:25 AM ch.ethz.inspire.emod.States saveStatesToFile
INFORMATION: Saving machine state sequence to file: Temp\NewMachine\SimulationConfig\SimConfig1\MachineStateSequence.txt
Nov 17, 2017 11:22:25 AM ch.ethz.inspire.emod.EModMain <init>
INFORMATION: Start EModMain
Nov 17, 2017 11:22:25 AM ch.ethz.inspire.emod.EModMain main
INFORMATION: EModMain called EModGUI
Nov 17, 2017 11:22:25 AM  
SCHWERWIEGEND: java.lang.Exception: StatusBarGUI: Access before initialization
Nov 17, 2017 11:22:25 AM  
SCHWERWIEGEND: 	at ch.ethz.inspire.emod.gui.EModStatusBarGUI.getInstance(EModStatusBarGUI.java:86)
Nov 17, 2017 11:22:26 AM  
SCHWERWIEGEND: 	at ch.ethz.inspire.emod.gui.EModStatusBarGUI.updateMachineInfo(EModStatusBarGUI.java:142)
Nov 17, 2017 11:22:26 AM  
SCHWERWIEGEND: 	at ch.ethz.inspire.emod.gui.SessionTreeGUI.update(SessionTreeGUI.java:175)
Nov 17, 2017 11:22:26 AM  
SCHWERWIEGEND: 	at ch.ethz.inspire.emod.gui.SessionTreeGUI.<init>(SessionTreeGUI.java:162)
Nov 17, 2017 11:22:26 AM  
SCHWERWIEGEND: 	at ch.ethz.inspire.emod.gui.ContentHandlerGUI.initialize(ContentHandlerGUI.java:73)
Nov 17, 2017 11:22:26 AM  
SCHWERWIEGEND: 	at ch.ethz.inspire.emod.gui.EModGUI.<init>(EModGUI.java:85)
Nov 17, 2017 11:22:26 AM  
SCHWERWIEGEND: 	at ch.ethz.inspire.emod.EModMain.main(EModMain.java:95)
Nov 17, 2017 11:22:26 AM  
SCHWERWIEGEND: 	at sun.reflect.NativeMethodAccessorImpl.invoke0(Native Method)
Nov 17, 2017 11:22:26 AM  
SCHWERWIEGEND: 	at sun.reflect.NativeMethodAccessorImpl.invoke(Unknown Source)
Nov 17, 2017 11:22:26 AM  
SCHWERWIEGEND: 	at sun.reflect.DelegatingMethodAccessorImpl.invoke(Unknown Source)
Nov 17, 2017 11:22:26 AM  
SCHWERWIEGEND: 	at java.lang.reflect.Method.invoke(Unknown Source)
Nov 17, 2017 11:22:26 AM  
SCHWERWIEGEND: 	at org.swtjar.SWTLoader.main(SWTLoader.java:48)
Nov 17, 2017 11:22:26 AM ch.ethz.inspire.emod.gui.EModGUI <init>
DEBUG: init menu
Nov 17, 2017 11:22:26 AM  
INFORMATION: License: PROFESSIONAL Simon Zuest (Zuest Engineering AG) valid until 01.01.2018
Nov 17, 2017 11:22:28 AM javax.xml.bind.ContextFinder find
FEIN: Trying to locate ch/ethz/inspire/emod/jaxb.properties
Nov 17, 2017 11:22:28 AM javax.xml.bind.ContextFinder find
FEIN:   not found
Nov 17, 2017 11:22:28 AM javax.xml.bind.ContextFinder find
FEIN: Checking system property javax.xml.bind.context.factory
Nov 17, 2017 11:22:28 AM javax.xml.bind.ContextFinder find
FEIN:   not found
Nov 17, 2017 11:22:28 AM javax.xml.bind.ContextFinder find
FEIN: Checking system property javax.xml.bind.JAXBContext
Nov 17, 2017 11:22:28 AM javax.xml.bind.ContextFinder find
FEIN:   not found
Nov 17, 2017 11:22:28 AM javax.xml.bind.ContextFinder lookupJaxbContextUsingOsgiServiceLoader
FEIN: Unable to find from OSGi: javax.xml.bind.JAXBContext
Nov 17, 2017 11:22:28 AM javax.xml.bind.ContextFinder find
FEIN: Checking META-INF/services
Nov 17, 2017 11:22:28 AM javax.xml.bind.ContextFinder find
FEIN: Unable to find: META-INF/services/javax.xml.bind.JAXBContext
Nov 17, 2017 11:22:28 AM javax.xml.bind.ContextFinder find
FEIN: Trying to create the platform default provider
Nov 17, 2017 11:22:28 AM javax.xml.bind.ContextFinder safeLoadClass
FEIN: Trying to load com.sun.xml.internal.bind.v2.ContextFactory
Nov 17, 2017 11:22:28 AM javax.xml.bind.ContextFinder newInstance
FEIN: loaded com.sun.xml.internal.bind.v2.ContextFactory from jar:file:/C:/Program%20Files/Java/jre1.8.0_121/lib/rt.jar!/com/sun/xml/internal/bind/v2/ContextFactory.class
Nov 17, 2017 11:22:28 AM com.sun.xml.internal.bind.v2.ContextFactory createContext
FEIN: Property com.sun.xml.internal.bind.XmlAccessorFactoryis not active.  Using JAXB's implementation
Nov 17, 2017 11:22:28 AM com.sun.xml.internal.bind.v2.runtime.reflect.opt.OptimizedAccessorFactory get
FEIN: Using optimized Accessor for public double ch.ethz.inspire.emod.gui.modelling.GraphElementPosition.getRotate() and public void ch.ethz.inspire.emod.gui.modelling.GraphElementPosition.setRotate(double)
Nov 17, 2017 11:22:28 AM com.sun.xml.internal.bind.v2.runtime.reflect.opt.OptimizedAccessorFactory get
FEIN: Using optimized Accessor for public ch.ethz.inspire.emod.model.APhysicalComponent ch.ethz.inspire.emod.model.MachineComponent.getComponent() and public void ch.ethz.inspire.emod.model.MachineComponent.setComponent(ch.ethz.inspire.emod.model.APhysicalComponent)
Nov 17, 2017 11:22:28 AM com.sun.xml.internal.bind.v2.runtime.reflect.opt.OptimizedAccessorFactory get
FEIN: Using optimized Accessor for public abstract java.lang.String ch.ethz.inspire.emod.model.APhysicalComponent.getType() and public abstract void ch.ethz.inspire.emod.model.APhysicalComponent.setType(java.lang.String)
Nov 17, 2017 11:22:28 AM com.sun.xml.internal.bind.v2.runtime.reflect.opt.OptimizedAccessorFactory get
FEIN: Using optimized Accessor for public abstract java.lang.String ch.ethz.inspire.emod.model.APhysicalComponent.getType() and public abstract void ch.ethz.inspire.emod.model.APhysicalComponent.setType(java.lang.String)
Nov 17, 2017 11:22:28 AM com.sun.xml.internal.bind.v2.runtime.reflect.opt.OptimizedAccessorFactory get
FEIN: Using optimized Accessor for public java.lang.String ch.ethz.inspire.emod.model.MachineComponent.getName() and public void ch.ethz.inspire.emod.model.MachineComponent.setName(java.lang.String)
Nov 17, 2017 11:22:28 AM com.sun.xml.internal.bind.v2.runtime.reflect.opt.OptimizedAccessorFactory get
FEIN: Using optimized Accessor for public java.lang.String ch.ethz.inspire.emod.model.MachineComponent.getName() and public void ch.ethz.inspire.emod.model.MachineComponent.setName(java.lang.String)
Nov 17, 2017 11:22:28 AM com.sun.xml.internal.bind.v2.runtime.reflect.opt.OptimizedAccessorFactory get
FEIN: Using optimized Accessor for protected java.lang.String ch.ethz.inspire.emod.simulation.ASimulationControl.name
Nov 17, 2017 11:22:28 AM com.sun.xml.internal.bind.v2.runtime.reflect.opt.OptimizedAccessorFactory get
FEIN: Using optimized Accessor for protected java.lang.String ch.ethz.inspire.emod.simulation.ASimulationControl.name
Nov 17, 2017 11:22:28 AM com.sun.xml.internal.bind.v2.runtime.reflect.opt.OptimizedAccessorFactory get
FEIN: Using optimized Accessor for protected ch.ethz.inspire.emod.model.units.SiUnit ch.ethz.inspire.emod.simulation.ASimulationControl.unit
Nov 17, 2017 11:22:28 AM com.sun.xml.internal.bind.v2.runtime.reflect.opt.OptimizedAccessorFactory get
FEIN: Using optimized Accessor for public int ch.ethz.inspire.emod.model.units.SiUnit.getPrefix() and public void ch.ethz.inspire.emod.model.units.SiUnit.setPrefix(int)
Nov 17, 2017 11:22:28 AM com.sun.xml.internal.bind.v2.runtime.reflect.opt.OptimizedAccessorFactory get
FEIN: Using optimized Accessor for protected ch.ethz.inspire.emod.gui.modelling.GraphElementPosition ch.ethz.inspire.emod.simulation.ASimulationControl.position
Nov 17, 2017 11:22:28 AM com.sun.xml.internal.bind.v2.runtime.reflect.opt.OptimizedAccessorFactory get
FEIN: Using optimized Accessor for protected java.lang.String ch.ethz.inspire.emod.utils.IOConnection.sourceName
Nov 17, 2017 11:22:28 AM com.sun.xml.internal.bind.v2.runtime.reflect.opt.OptimizedAccessorFactory get
FEIN: Using optimized Accessor for protected java.lang.String ch.ethz.inspire.emod.utils.IOConnection.sourceName
Nov 17, 2017 11:22:28 AM com.sun.xml.internal.bind.v2.runtime.reflect.opt.OptimizedAccessorFactory get
FEIN: Using optimized Accessor for protected java.lang.String ch.ethz.inspire.emod.utils.IOConnection.targetName
Nov 17, 2017 11:22:28 AM com.sun.xml.internal.bind.v2.runtime.reflect.opt.OptimizedAccessorFactory get
FEIN: Using optimized Accessor for protected java.lang.String ch.ethz.inspire.emod.utils.IOConnection.targetName
Nov 17, 2017 11:22:28 AM com.sun.xml.internal.bind.v2.runtime.reflect.opt.OptimizedAccessorFactory get
FEIN: Using optimized Accessor for protected java.lang.String ch.ethz.inspire.emod.model.Motor.type
Nov 17, 2017 11:22:28 AM com.sun.xml.internal.bind.v2.runtime.reflect.opt.OptimizedAccessorFactory get
FEIN: Using optimized Accessor for protected java.lang.String ch.ethz.inspire.emod.model.Motor.type
Nov 17, 2017 11:22:28 AM com.sun.xml.internal.bind.v2.runtime.reflect.opt.OptimizedAccessorFactory get
FEIN: Using optimized Accessor for protected java.lang.String ch.ethz.inspire.emod.model.MotorAC.type
Nov 17, 2017 11:22:28 AM com.sun.xml.internal.bind.v2.runtime.reflect.opt.OptimizedAccessorFactory get
FEIN: Using optimized Accessor for protected java.lang.String ch.ethz.inspire.emod.model.MotorAC.type
Nov 17, 2017 11:22:28 AM com.sun.xml.internal.bind.v2.runtime.reflect.opt.OptimizedAccessorFactory get
FEIN: Using optimized Accessor for protected java.lang.String ch.ethz.inspire.emod.model.MotorDCLinear.type
Nov 17, 2017 11:22:28 AM com.sun.xml.internal.bind.v2.runtime.reflect.opt.OptimizedAccessorFactory get
FEIN: Using optimized Accessor for protected java.lang.String ch.ethz.inspire.emod.model.MotorDCLinear.type
Nov 17, 2017 11:22:28 AM com.sun.xml.internal.bind.v2.runtime.reflect.opt.OptimizedAccessorFactory get
FEIN: Using optimized Accessor for protected java.lang.String ch.ethz.inspire.emod.model.LinAxis.type
Nov 17, 2017 11:22:28 AM com.sun.xml.internal.bind.v2.runtime.reflect.opt.OptimizedAccessorFactory get
FEIN: Using optimized Accessor for protected java.lang.String ch.ethz.inspire.emod.model.LinAxis.type
Nov 17, 2017 11:22:28 AM com.sun.xml.internal.bind.v2.runtime.reflect.opt.OptimizedAccessorFactory get
FEIN: Using optimized Accessor for protected java.lang.String ch.ethz.inspire.emod.model.RotAxis.type
Nov 17, 2017 11:22:28 AM com.sun.xml.internal.bind.v2.runtime.reflect.opt.OptimizedAccessorFactory get
FEIN: Using optimized Accessor for protected java.lang.String ch.ethz.inspire.emod.model.RotAxis.type
Nov 17, 2017 11:22:28 AM com.sun.xml.internal.bind.v2.runtime.reflect.opt.OptimizedAccessorFactory get
FEIN: Using optimized Accessor for protected java.lang.String ch.ethz.inspire.emod.model.MotorDC.type
Nov 17, 2017 11:22:28 AM com.sun.xml.internal.bind.v2.runtime.reflect.opt.OptimizedAccessorFactory get
FEIN: Using optimized Accessor for protected java.lang.String ch.ethz.inspire.emod.model.MotorDC.type
Nov 17, 2017 11:22:28 AM com.sun.xml.internal.bind.v2.runtime.reflect.opt.OptimizedAccessorFactory get
FEIN: Using optimized Accessor for protected java.lang.String ch.ethz.inspire.emod.model.Revolver.type
Nov 17, 2017 11:22:28 AM com.sun.xml.internal.bind.v2.runtime.reflect.opt.OptimizedAccessorFactory get
FEIN: Using optimized Accessor for protected java.lang.String ch.ethz.inspire.emod.model.Revolver.type
Nov 17, 2017 11:22:28 AM com.sun.xml.internal.bind.v2.runtime.reflect.opt.OptimizedAccessorFactory get
FEIN: Using optimized Accessor for protected java.lang.String ch.ethz.inspire.emod.model.Fan.type
Nov 17, 2017 11:22:28 AM com.sun.xml.internal.bind.v2.runtime.reflect.opt.OptimizedAccessorFactory get
FEIN: Using optimized Accessor for protected java.lang.String ch.ethz.inspire.emod.model.Fan.type
Nov 17, 2017 11:22:28 AM com.sun.xml.internal.bind.v2.runtime.reflect.opt.OptimizedAccessorFactory get
FEIN: Using optimized Accessor for protected java.lang.String ch.ethz.inspire.emod.model.HydraulicAccumulator.type
Nov 17, 2017 11:22:28 AM com.sun.xml.internal.bind.v2.runtime.reflect.opt.OptimizedAccessorFactory get
FEIN: Using optimized Accessor for protected java.lang.String ch.ethz.inspire.emod.model.HydraulicAccumulator.type
Nov 17, 2017 11:22:28 AM com.sun.xml.internal.bind.v2.runtime.reflect.opt.OptimizedAccessorFactory get
FEIN: Using optimized Accessor for protected java.lang.String ch.ethz.inspire.emod.model.Cooler.type
Nov 17, 2017 11:22:28 AM com.sun.xml.internal.bind.v2.runtime.reflect.opt.OptimizedAccessorFactory get
FEIN: Using optimized Accessor for protected java.lang.String ch.ethz.inspire.emod.model.Cooler.type
Nov 17, 2017 11:22:28 AM com.sun.xml.internal.bind.v2.runtime.reflect.opt.OptimizedAccessorFactory get
FEIN: Using optimized Accessor for protected java.lang.String ch.ethz.inspire.emod.model.Transmission.type
Nov 17, 2017 11:22:28 AM com.sun.xml.internal.bind.v2.runtime.reflect.opt.OptimizedAccessorFactory get
FEIN: Using optimized Accessor for protected java.lang.String ch.ethz.inspire.emod.model.Transmission.type
Nov 17, 2017 11:22:28 AM com.sun.xml.internal.bind.v2.runtime.reflect.opt.OptimizedAccessorFactory get
FEIN: Using optimized Accessor for protected java.lang.String ch.ethz.inspire.emod.model.CompressedFluid.type
Nov 17, 2017 11:22:28 AM com.sun.xml.internal.bind.v2.runtime.reflect.opt.OptimizedAccessorFactory get
FEIN: Using optimized Accessor for protected java.lang.String ch.ethz.inspire.emod.model.CompressedFluid.type
Nov 17, 2017 11:22:28 AM com.sun.xml.internal.bind.v2.runtime.reflect.opt.OptimizedAccessorFactory get
FEIN: Using optimized Accessor for protected java.lang.String ch.ethz.inspire.emod.model.Amplifier.type
Nov 17, 2017 11:22:28 AM com.sun.xml.internal.bind.v2.runtime.reflect.opt.OptimizedAccessorFactory get
FEIN: Using optimized Accessor for protected java.lang.String ch.ethz.inspire.emod.model.Amplifier.type
Nov 17, 2017 11:22:28 AM com.sun.xml.internal.bind.v2.runtime.reflect.opt.OptimizedAccessorFactory get
FEIN: Using optimized Accessor for protected java.lang.String ch.ethz.inspire.emod.model.ConstantComponent.type
Nov 17, 2017 11:22:28 AM com.sun.xml.internal.bind.v2.runtime.reflect.opt.OptimizedAccessorFactory get
FEIN: Using optimized Accessor for protected java.lang.String ch.ethz.inspire.emod.model.ConstantComponent.type
Nov 17, 2017 11:22:28 AM com.sun.xml.internal.bind.v2.runtime.reflect.opt.OptimizedAccessorFactory get
FEIN: Using optimized Accessor for protected java.lang.String ch.ethz.inspire.emod.model.Servodrive.type
Nov 17, 2017 11:22:28 AM com.sun.xml.internal.bind.v2.runtime.reflect.opt.OptimizedAccessorFactory get
FEIN: Using optimized Accessor for protected java.lang.String ch.ethz.inspire.emod.model.Servodrive.type
Nov 17, 2017 11:22:28 AM com.sun.xml.internal.bind.v2.runtime.reflect.opt.OptimizedAccessorFactory get
FEIN: Using optimized Accessor for protected java.lang.String ch.ethz.inspire.emod.model.Cylinder.type
Nov 17, 2017 11:22:28 AM com.sun.xml.internal.bind.v2.runtime.reflect.opt.OptimizedAccessorFactory get
FEIN: Using optimized Accessor for protected java.lang.String ch.ethz.inspire.emod.model.Cylinder.type
Nov 17, 2017 11:22:28 AM com.sun.xml.internal.bind.v2.runtime.reflect.opt.OptimizedAccessorFactory get
FEIN: Using optimized Accessor for protected java.lang.String ch.ethz.inspire.emod.model.Valve.type
Nov 17, 2017 11:22:28 AM com.sun.xml.internal.bind.v2.runtime.reflect.opt.OptimizedAccessorFactory get
FEIN: Using optimized Accessor for protected java.lang.String ch.ethz.inspire.emod.model.Valve.type
Nov 17, 2017 11:22:28 AM com.sun.xml.internal.bind.v2.runtime.reflect.opt.OptimizedAccessorFactory get
FEIN: Using optimized Accessor for protected java.lang.String ch.ethz.inspire.emod.model.Pipe.type
Nov 17, 2017 11:22:28 AM com.sun.xml.internal.bind.v2.runtime.reflect.opt.OptimizedAccessorFactory get
FEIN: Using optimized Accessor for protected java.lang.String ch.ethz.inspire.emod.model.Pipe.type
Nov 17, 2017 11:22:28 AM com.sun.xml.internal.bind.v2.runtime.reflect.opt.OptimizedAccessorFactory get
FEIN: Using optimized Accessor for protected java.lang.String ch.ethz.inspire.emod.model.HeatExchanger.type
Nov 17, 2017 11:22:28 AM com.sun.xml.internal.bind.v2.runtime.reflect.opt.OptimizedAccessorFactory get
FEIN: Using optimized Accessor for protected java.lang.String ch.ethz.inspire.emod.model.HeatExchanger.type
Nov 17, 2017 11:22:28 AM com.sun.xml.internal.bind.v2.runtime.reflect.opt.OptimizedAccessorFactory get
FEIN: Using optimized Accessor for protected java.lang.String ch.ethz.inspire.emod.model.Bypass.type
Nov 17, 2017 11:22:28 AM com.sun.xml.internal.bind.v2.runtime.reflect.opt.OptimizedAccessorFactory get
FEIN: Using optimized Accessor for protected java.lang.String ch.ethz.inspire.emod.model.Bypass.type
Nov 17, 2017 11:22:28 AM com.sun.xml.internal.bind.v2.runtime.reflect.opt.OptimizedAccessorFactory get
FEIN: Using optimized Accessor for protected java.lang.String ch.ethz.inspire.emod.model.HeatExchangerAir.type
Nov 17, 2017 11:22:28 AM com.sun.xml.internal.bind.v2.runtime.reflect.opt.OptimizedAccessorFactory get
FEIN: Using optimized Accessor for protected java.lang.String ch.ethz.inspire.emod.model.HeatExchangerAir.type
Nov 17, 2017 11:22:28 AM com.sun.xml.internal.bind.v2.runtime.reflect.opt.OptimizedAccessorFactory get
FEIN: Using optimized Accessor for protected double ch.ethz.inspire.emod.model.MovingMass.mass
Nov 17, 2017 11:22:28 AM com.sun.xml.internal.bind.v2.runtime.reflect.opt.OptimizedAccessorFactory get
FEIN: Using optimized Accessor for protected double ch.ethz.inspire.emod.model.MovingMass.inertia
Nov 17, 2017 11:22:28 AM com.sun.xml.internal.bind.v2.runtime.reflect.opt.OptimizedAccessorFactory get
FEIN: Using optimized Accessor for protected double ch.ethz.inspire.emod.model.MovingMass.angle
Nov 17, 2017 11:22:28 AM com.sun.xml.internal.bind.v2.runtime.reflect.opt.OptimizedAccessorFactory get
FEIN: Using optimized Accessor for protected double ch.ethz.inspire.emod.model.MovingMass.lever
Nov 17, 2017 11:22:28 AM com.sun.xml.internal.bind.v2.runtime.reflect.opt.OptimizedAccessorFactory get
FEIN: Using optimized Accessor for protected java.lang.String ch.ethz.inspire.emod.model.Bearing.type
Nov 17, 2017 11:22:28 AM com.sun.xml.internal.bind.v2.runtime.reflect.opt.OptimizedAccessorFactory get
FEIN: Using optimized Accessor for protected java.lang.String ch.ethz.inspire.emod.model.Bearing.type
Nov 17, 2017 11:22:28 AM com.sun.xml.internal.bind.v2.runtime.reflect.opt.OptimizedAccessorFactory get
FEIN: Using optimized Accessor for protected java.lang.String ch.ethz.inspire.emod.model.Spindle.type
Nov 17, 2017 11:22:28 AM com.sun.xml.internal.bind.v2.runtime.reflect.opt.OptimizedAccessorFactory get
FEIN: Using optimized Accessor for protected java.lang.String ch.ethz.inspire.emod.model.Spindle.type
Nov 17, 2017 11:22:28 AM com.sun.xml.internal.bind.v2.runtime.reflect.opt.OptimizedAccessorFactory get
FEIN: Using optimized Accessor for protected java.lang.String ch.ethz.inspire.emod.model.Tank.type
Nov 17, 2017 11:22:28 AM com.sun.xml.internal.bind.v2.runtime.reflect.opt.OptimizedAccessorFactory get
FEIN: Using optimized Accessor for protected java.lang.String ch.ethz.inspire.emod.model.Tank.type
Nov 17, 2017 11:22:28 AM com.sun.xml.internal.bind.v2.runtime.reflect.opt.OptimizedAccessorFactory get
FEIN: Using optimized Accessor for protected java.lang.String ch.ethz.inspire.emod.model.Pump.type
Nov 17, 2017 11:22:28 AM com.sun.xml.internal.bind.v2.runtime.reflect.opt.OptimizedAccessorFactory get
FEIN: Using optimized Accessor for protected java.lang.String ch.ethz.inspire.emod.model.Pump.type
Nov 17, 2017 11:22:28 AM com.sun.xml.internal.bind.v2.runtime.reflect.opt.OptimizedAccessorFactory get
FEIN: Using optimized Accessor for protected java.lang.String ch.ethz.inspire.emod.model.ForcedFluidFlow.type
Nov 17, 2017 11:22:28 AM com.sun.xml.internal.bind.v2.runtime.reflect.opt.OptimizedAccessorFactory get
FEIN: Using optimized Accessor for protected java.lang.String ch.ethz.inspire.emod.model.ForcedFluidFlow.type
Nov 17, 2017 11:22:28 AM com.sun.xml.internal.bind.v2.runtime.reflect.opt.OptimizedAccessorFactory get
FEIN: Using optimized Accessor for protected java.lang.String ch.ethz.inspire.emod.model.CooledHeatSource.type
Nov 17, 2017 11:22:28 AM com.sun.xml.internal.bind.v2.runtime.reflect.opt.OptimizedAccessorFactory get
FEIN: Using optimized Accessor for protected java.lang.String ch.ethz.inspire.emod.model.CooledHeatSource.type
Nov 17, 2017 11:22:28 AM com.sun.xml.internal.bind.v2.runtime.reflect.opt.OptimizedAccessorFactory get
FEIN: Using optimized Accessor for protected java.lang.String ch.ethz.inspire.emod.model.control.HysteresisControl.type
Nov 17, 2017 11:22:28 AM com.sun.xml.internal.bind.v2.runtime.reflect.opt.OptimizedAccessorFactory get
FEIN: Using optimized Accessor for protected java.lang.String ch.ethz.inspire.emod.model.control.HysteresisControl.type
Nov 17, 2017 11:22:28 AM com.sun.xml.internal.bind.v2.runtime.reflect.opt.OptimizedAccessorFactory get
FEIN: Using optimized Accessor for protected java.lang.String ch.ethz.inspire.emod.model.control.SwitchControl.signalUnit
Nov 17, 2017 11:22:28 AM com.sun.xml.internal.bind.v2.runtime.reflect.opt.OptimizedAccessorFactory get
FEIN: Using optimized Accessor for protected java.lang.String ch.ethz.inspire.emod.model.control.SwitchControl.signalUnit
Nov 17, 2017 11:22:28 AM com.sun.xml.internal.bind.v2.runtime.reflect.opt.OptimizedAccessorFactory get
FEIN: Using optimized Accessor for protected java.lang.String ch.ethz.inspire.emod.model.control.SwitchControl.controlUnit
Nov 17, 2017 11:22:28 AM com.sun.xml.internal.bind.v2.runtime.reflect.opt.OptimizedAccessorFactory get
FEIN: Using optimized Accessor for protected java.lang.String ch.ethz.inspire.emod.model.control.SwitchControl.controlUnit
Nov 17, 2017 11:22:28 AM com.sun.xml.internal.bind.v2.runtime.reflect.opt.OptimizedAccessorFactory get
FEIN: Using optimized Accessor for protected double ch.ethz.inspire.emod.model.control.SwitchControl.threshold
Nov 17, 2017 11:22:28 AM com.sun.xml.internal.bind.v2.runtime.reflect.opt.OptimizedAccessorFactory get
FEIN: Using optimized Accessor for protected boolean ch.ethz.inspire.emod.model.control.SwitchControl.passHigh
Nov 17, 2017 11:22:28 AM com.sun.xml.internal.bind.v2.runtime.reflect.opt.OptimizedAccessorFactory get
FEIN: Using optimized Accessor for protected java.lang.String ch.ethz.inspire.emod.model.math.Sum.unit
Nov 17, 2017 11:22:28 AM com.sun.xml.internal.bind.v2.runtime.reflect.opt.OptimizedAccessorFactory get
FEIN: Using optimized Accessor for protected java.lang.String ch.ethz.inspire.emod.model.math.Sum.unit
Nov 17, 2017 11:22:28 AM com.sun.xml.internal.bind.v2.runtime.reflect.opt.OptimizedAccessorFactory get
FEIN: Using optimized Accessor for protected java.lang.String ch.ethz.inspire.emod.model.math.Gain.unit
Nov 17, 2017 11:22:28 AM com.sun.xml.internal.bind.v2.runtime.reflect.opt.OptimizedAccessorFactory get
FEIN: Using optimized Accessor for protected java.lang.String ch.ethz.inspire.emod.model.math.Gain.unit
Nov 17, 2017 11:22:28 AM com.sun.xml.internal.bind.v2.runtime.reflect.opt.OptimizedAccessorFactory get
FEIN: Using optimized Accessor for protected double ch.ethz.inspire.emod.model.math.Gain.gain
Nov 17, 2017 11:22:28 AM com.sun.xml.internal.bind.v2.runtime.reflect.opt.OptimizedAccessorFactory get
FEIN: Using optimized Accessor for protected java.lang.String ch.ethz.inspire.emod.model.thermal.HomogStorage.name
Nov 17, 2017 11:22:28 AM com.sun.xml.internal.bind.v2.runtime.reflect.opt.OptimizedAccessorFactory get
FEIN: Using optimized Accessor for protected java.lang.String ch.ethz.inspire.emod.model.thermal.HomogStorage.name
Nov 17, 2017 11:22:28 AM com.sun.xml.internal.bind.v2.runtime.reflect.opt.OptimizedAccessorFactory get
FEIN: Using optimized Accessor for protected java.lang.String ch.ethz.inspire.emod.model.thermal.HomogStorage.type
Nov 17, 2017 11:22:28 AM com.sun.xml.internal.bind.v2.runtime.reflect.opt.OptimizedAccessorFactory get
FEIN: Using optimized Accessor for protected java.lang.String ch.ethz.inspire.emod.model.thermal.HomogStorage.type
Nov 17, 2017 11:22:28 AM com.sun.xml.internal.bind.v2.runtime.reflect.opt.OptimizedAccessorFactory get
FEIN: Using optimized Accessor for protected java.lang.String ch.ethz.inspire.emod.model.thermal.HomogStorage.parentType
Nov 17, 2017 11:22:28 AM com.sun.xml.internal.bind.v2.runtime.reflect.opt.OptimizedAccessorFactory get
FEIN: Using optimized Accessor for protected java.lang.String ch.ethz.inspire.emod.model.thermal.HomogStorage.parentType
Nov 17, 2017 11:22:28 AM com.sun.xml.internal.bind.v2.runtime.reflect.opt.OptimizedAccessorFactory get
FEIN: Using optimized Accessor for protected java.lang.String ch.ethz.inspire.emod.model.thermal.LayerStorage.type
Nov 17, 2017 11:22:28 AM com.sun.xml.internal.bind.v2.runtime.reflect.opt.OptimizedAccessorFactory get
FEIN: Using optimized Accessor for protected java.lang.String ch.ethz.inspire.emod.model.thermal.LayerStorage.type
Nov 17, 2017 11:22:28 AM com.sun.xml.internal.bind.v2.runtime.reflect.opt.OptimizedAccessorFactory get
FEIN: Using optimized Accessor for protected java.lang.String ch.ethz.inspire.emod.model.thermal.LayerStorage.parentType
Nov 17, 2017 11:22:28 AM com.sun.xml.internal.bind.v2.runtime.reflect.opt.OptimizedAccessorFactory get
FEIN: Using optimized Accessor for protected java.lang.String ch.ethz.inspire.emod.model.thermal.LayerStorage.parentType
Nov 17, 2017 11:22:28 AM com.sun.xml.internal.bind.v2.runtime.reflect.opt.OptimizedAccessorFactory get
FEIN: Using optimized Accessor for protected java.lang.String ch.ethz.inspire.emod.model.thermal.ForcedHeatTransfere.type
Nov 17, 2017 11:22:28 AM com.sun.xml.internal.bind.v2.runtime.reflect.opt.OptimizedAccessorFactory get
FEIN: Using optimized Accessor for protected java.lang.String ch.ethz.inspire.emod.model.thermal.ForcedHeatTransfere.type
Nov 17, 2017 11:22:28 AM com.sun.xml.internal.bind.v2.runtime.reflect.opt.OptimizedAccessorFactory get
FEIN: Using optimized Accessor for protected java.lang.String ch.ethz.inspire.emod.model.thermal.ForcedHeatTransfere.parentType
Nov 17, 2017 11:22:28 AM com.sun.xml.internal.bind.v2.runtime.reflect.opt.OptimizedAccessorFactory get
FEIN: Using optimized Accessor for protected java.lang.String ch.ethz.inspire.emod.model.thermal.ForcedHeatTransfere.parentType
Nov 17, 2017 11:22:28 AM com.sun.xml.internal.bind.v2.runtime.reflect.opt.OptimizedAccessorFactory get
FEIN: Using optimized Accessor for protected java.lang.String ch.ethz.inspire.emod.model.thermal.FreeHeatTransfere.type
Nov 17, 2017 11:22:28 AM com.sun.xml.internal.bind.v2.runtime.reflect.opt.OptimizedAccessorFactory get
FEIN: Using optimized Accessor for protected java.lang.String ch.ethz.inspire.emod.model.thermal.FreeHeatTransfere.type
Nov 17, 2017 11:22:28 AM com.sun.xml.internal.bind.v2.runtime.reflect.opt.OptimizedAccessorFactory get
FEIN: Using optimized Accessor for protected java.lang.String ch.ethz.inspire.emod.model.thermal.FreeHeatTransfere.parentType
Nov 17, 2017 11:22:28 AM com.sun.xml.internal.bind.v2.runtime.reflect.opt.OptimizedAccessorFactory get
FEIN: Using optimized Accessor for protected java.lang.String ch.ethz.inspire.emod.model.thermal.FreeHeatTransfere.parentType
Nov 17, 2017 11:22:28 AM com.sun.xml.internal.bind.v2.util.XmlFactory createParserFactory
FEIN: SAXParserFactory instance: com.sun.org.apache.xerces.internal.jaxp.SAXParserFactoryImpl@670b40af
Nov 17, 2017 11:22:30 AM sun.awt.windows.WToolkit <clinit>
FEIN: Win version: 0x3839000a = 943259658 (Windows Vista)
Nov 17, 2017 11:22:34 AM  
SCHWERWIEGEND: Exception in thread "main" 
Nov 17, 2017 11:22:34 AM  
SCHWERWIEGEND: java.lang.NoSuchMethodError: ch.ethz.inspire.emod.gui.modelling.ConnectionLine.setStrokeWidth(F)V
Nov 17, 2017 11:22:34 AM  
SCHWERWIEGEND: 	at ch.ethz.inspire.emod.gui.modelling.ConnectionLine.update(ConnectionLine.java:130)
Nov 17, 2017 11:22:34 AM  
SCHWERWIEGEND: 	at ch.ethz.inspire.emod.gui.modelling.ConnectionLine.<init>(ConnectionLine.java:87)
Nov 17, 2017 11:22:34 AM  
SCHWERWIEGEND: 	at ch.ethz.inspire.emod.gui.modelling.ModelGraphGUI.drawIOConnection(ModelGraphGUI.java:669)
Nov 17, 2017 11:22:34 AM  
SCHWERWIEGEND: 	at ch.ethz.inspire.emod.gui.modelling.GraphEventHandler.dragActivityFinalStep(GraphEventHandler.java:325)
Nov 17, 2017 11:22:34 AM  
SCHWERWIEGEND: 	at org.piccolo2d.event.PDragSequenceEventHandler$1.activityFinished(PDragSequenceEventHandler.java:212)
Nov 17, 2017 11:22:34 AM  
SCHWERWIEGEND: 	at org.piccolo2d.activities.PActivity.activityFinished(PActivity.java:275)
Nov 17, 2017 11:22:34 AM  
SCHWERWIEGEND: 	at org.piccolo2d.activities.PActivity.terminate(PActivity.java:367)
Nov 17, 2017 11:22:34 AM  
SCHWERWIEGEND: 	at org.piccolo2d.activities.PActivity.terminate(PActivity.java:322)
Nov 17, 2017 11:22:34 AM  
SCHWERWIEGEND: 	at org.piccolo2d.event.PDragSequenceEventHandler.stopDragActivity(PDragSequenceEventHandler.java:225)
Nov 17, 2017 11:22:34 AM  
SCHWERWIEGEND: 	at org.piccolo2d.event.PDragSequenceEventHandler.endDrag(PDragSequenceEventHandler.java:153)
Nov 17, 2017 11:22:34 AM  
SCHWERWIEGEND: 	at org.piccolo2d.extras.event.PSelectionEventHandler.endDrag(PSelectionEventHandler.java:466)
Nov 17, 2017 11:22:34 AM  
SCHWERWIEGEND: 	at org.piccolo2d.event.PDragSequenceEventHandler.mouseReleased(PDragSequenceEventHandler.java:310)
Nov 17, 2017 11:22:34 AM  
SCHWERWIEGEND: 	at ch.ethz.inspire.emod.gui.modelling.GraphEventHandler.mouseReleased(GraphEventHandler.java:580)
Nov 17, 2017 11:22:34 AM  
SCHWERWIEGEND: 	at org.piccolo2d.event.PBasicInputEventHandler.processEvent(PBasicInputEventHandler.java:109)
Nov 17, 2017 11:22:34 AM  
SCHWERWIEGEND: 	at org.piccolo2d.util.PPickPath.processEvent(PPickPath.java:343)
Nov 17, 2017 11:22:34 AM  
SCHWERWIEGEND: 	at org.piccolo2d.PInputManager.dispatchEventToListener(PInputManager.java:378)
Nov 17, 2017 11:22:34 AM  
SCHWERWIEGEND: 	at org.piccolo2d.PInputManager.mouseReleased(PInputManager.java:264)
Nov 17, 2017 11:22:34 AM  
SCHWERWIEGEND: 	at org.piccolo2d.event.PBasicInputEventHandler.processEvent(PBasicInputEventHandler.java:109)
Nov 17, 2017 11:22:34 AM  
SCHWERWIEGEND: 	at org.piccolo2d.PInputManager.processInput(PInputManager.java:340)
Nov 17, 2017 11:22:34 AM  
SCHWERWIEGEND: 	at org.piccolo2d.PRoot.processInputs(PRoot.java:329)
Nov 17, 2017 11:22:34 AM  
SCHWERWIEGEND: 	at org.piccolo2d.PInputManager.processEventFromCamera(PInputManager.java:362)
Nov 17, 2017 11:22:34 AM  
SCHWERWIEGEND: 	at org.piccolo2d.extras.swt.PSWTCanvas.sendInputEventToInputManager(PSWTCanvas.java:478)
Nov 17, 2017 11:22:34 AM  
SCHWERWIEGEND: 	at org.piccolo2d.extras.swt.PSWTCanvas$MouseInputSource.mouseUp(PSWTCanvas.java:725)
Nov 17, 2017 11:22:34 AM  
SCHWERWIEGEND: 	at org.eclipse.swt.widgets.TypedListener.handleEvent(Unknown Source)
Nov 17, 2017 11:22:34 AM  
SCHWERWIEGEND: 	at org.eclipse.swt.widgets.EventTable.sendEvent(Unknown Source)
Nov 17, 2017 11:22:34 AM  
SCHWERWIEGEND: 	at org.eclipse.swt.widgets.Display.sendEvent(Unknown Source)
Nov 17, 2017 11:22:34 AM  
SCHWERWIEGEND: 	at org.eclipse.swt.widgets.Widget.sendEvent(Unknown Source)
Nov 17, 2017 11:22:34 AM  
SCHWERWIEGEND: 	at org.eclipse.swt.widgets.Display.runDeferredEvents(Unknown Source)
Nov 17, 2017 11:22:34 AM  
SCHWERWIEGEND: 	at org.eclipse.swt.widgets.Display.readAndDispatch(Unknown Source)
Nov 17, 2017 11:22:34 AM  
SCHWERWIEGEND: 	at ch.ethz.inspire.emod.gui.EModGUI.<init>(EModGUI.java:104)
Nov 17, 2017 11:22:34 AM  
SCHWERWIEGEND: 	at ch.ethz.inspire.emod.EModMain.main(EModMain.java:95)
Nov 17, 2017 11:22:34 AM  
SCHWERWIEGEND: 	at sun.reflect.NativeMethodAccessorImpl.invoke0(Native Method)
Nov 17, 2017 11:22:34 AM  
SCHWERWIEGEND: 	at sun.reflect.NativeMethodAccessorImpl.invoke(Unknown Source)
Nov 17, 2017 11:22:34 AM  
SCHWERWIEGEND: 	at sun.reflect.DelegatingMethodAccessorImpl.invoke(Unknown Source)
Nov 17, 2017 11:22:34 AM  
SCHWERWIEGEND: 	at java.lang.reflect.Method.invoke(Unknown Source)
Nov 17, 2017 11:22:34 AM  
SCHWERWIEGEND: 	at org.swtjar.SWTLoader.main(SWTLoader.java:48)
